%YAML 1.1
%TAG !u! tag:unity3d.com,2011:
--- !u!74 &7400000
AnimationClip:
  m_ObjectHideFlags: 0
  m_CorrespondingSourceObject: {fileID: 0}
  m_PrefabInstance: {fileID: 0}
  m_PrefabAsset: {fileID: 0}
  m_Name: FireTrap
  serializedVersion: 6
  m_Legacy: 0
  m_Compressed: 0
  m_UseHighQualityCurve: 1
  m_RotationCurves: []
  m_CompressedRotationCurves: []
  m_EulerCurves: []
  m_PositionCurves: []
  m_ScaleCurves: []
  m_FloatCurves: []
  m_PPtrCurves:
  - curve:
    - time: 0
      value: {fileID: 4037211603045722190, guid: 235f42c46d0237649bb558d95f441757,
        type: 3}
    - time: 0.083333336
      value: {fileID: -6143217260891762156, guid: 235f42c46d0237649bb558d95f441757,
        type: 3}
    - time: 0.16666667
      value: {fileID: -6447882466815708187, guid: 235f42c46d0237649bb558d95f441757,
        type: 3}
    - time: 0.25
      value: {fileID: 9156698772483756508, guid: 235f42c46d0237649bb558d95f441757,
        type: 3}
    - time: 0.33333334
      value: {fileID: 8534331896328912630, guid: 235f42c46d0237649bb558d95f441757,
        type: 3}
    - time: 0.41666666
      value: {fileID: -5203301605008451231, guid: 235f42c46d0237649bb558d95f441757,
        type: 3}
    - time: 0.5
      value: {fileID: 2669987239793262791, guid: 235f42c46d0237649bb558d95f441757,
        type: 3}
    - time: 0.5833333
      value: {fileID: 7476582651214843094, guid: 235f42c46d0237649bb558d95f441757,
        type: 3}
    - time: 0.6666667
      value: {fileID: 419145923560595984, guid: 235f42c46d0237649bb558d95f441757,
        type: 3}
    - time: 0.75
      value: {fileID: 4861854932517643727, guid: 235f42c46d0237649bb558d95f441757,
        type: 3}
    - time: 0.8333333
      value: {fileID: 2209843127534633983, guid: 235f42c46d0237649bb558d95f441757,
        type: 3}
    - time: 0.9166667
      value: {fileID: -1582899518360261714, guid: 235f42c46d0237649bb558d95f441757,
        type: 3}
    attribute: m_Sprite
    path: 
    classID: 212
    script: {fileID: 0}
  m_SampleRate: 12
  m_WrapMode: 0
  m_Bounds:
    m_Center: {x: 0, y: 0, z: 0}
    m_Extent: {x: 0, y: 0, z: 0}
  m_ClipBindingConstant:
    genericBindings:
    - serializedVersion: 2
      path: 0
      attribute: 0
      script: {fileID: 0}
      typeID: 212
      customType: 23
      isPPtrCurve: 1
    pptrCurveMapping:
    - {fileID: 4037211603045722190, guid: 235f42c46d0237649bb558d95f441757, type: 3}
    - {fileID: -6143217260891762156, guid: 235f42c46d0237649bb558d95f441757, type: 3}
    - {fileID: -6447882466815708187, guid: 235f42c46d0237649bb558d95f441757, type: 3}
    - {fileID: 9156698772483756508, guid: 235f42c46d0237649bb558d95f441757, type: 3}
    - {fileID: 8534331896328912630, guid: 235f42c46d0237649bb558d95f441757, type: 3}
    - {fileID: -5203301605008451231, guid: 235f42c46d0237649bb558d95f441757, type: 3}
    - {fileID: 2669987239793262791, guid: 235f42c46d0237649bb558d95f441757, type: 3}
    - {fileID: 7476582651214843094, guid: 235f42c46d0237649bb558d95f441757, type: 3}
    - {fileID: 419145923560595984, guid: 235f42c46d0237649bb558d95f441757, type: 3}
    - {fileID: 4861854932517643727, guid: 235f42c46d0237649bb558d95f441757, type: 3}
    - {fileID: 2209843127534633983, guid: 235f42c46d0237649bb558d95f441757, type: 3}
    - {fileID: -1582899518360261714, guid: 235f42c46d0237649bb558d95f441757, type: 3}
  m_AnimationClipSettings:
    serializedVersion: 2
    m_AdditiveReferencePoseClip: {fileID: 0}
    m_AdditiveReferencePoseTime: 0
    m_StartTime: 0
    m_StopTime: 1
    m_OrientationOffsetY: 0
    m_Level: 0
    m_CycleOffset: 0
    m_HasAdditiveReferencePose: 0
    m_LoopTime: 1
    m_LoopBlend: 0
    m_LoopBlendOrientation: 0
    m_LoopBlendPositionY: 0
    m_LoopBlendPositionXZ: 0
    m_KeepOriginalOrientation: 0
    m_KeepOriginalPositionY: 1
    m_KeepOriginalPositionXZ: 0
    m_HeightFromFeet: 0
    m_Mirror: 0
  m_EditorCurves: []
  m_EulerEditorCurves: []
  m_HasGenericRootTransform: 0
  m_HasMotionFloatCurves: 0
  m_Events: []
